Create GIF animations — make_movie • gamar
…
# to make a movie
path_movie <- make_movie(out, "r_main_display")

# to print the result, it is necessary to have the package `magick`
magick::image_read(path_movie)
#> # A tibble: 100 x 7
#>    format width height colorspace matte filesize density
#>    <chr>  <int>  <int> <chr>      <lgl>    <int> <chr>  
#>  1 GIF      500    500 sRGB       FALSE  3597150 72x72  
#>  2 GIF      500    500 sRGB       FALSE  3597150 72x72  
#>  3 GIF      500    500 sRGB       FALSE  3597150 72x72  
#>  4 GIF      500    500 sRGB       FALSE  3597150 72x72  
#>  5 GIF      500    500 sRGB       FALSE  3597150 72x72  
#>  6 GIF      500    500 sRGB       FALSE  3597150 72x72  
#>  7 GIF      500    500 sRGB       FALSE  3597150 72x72  
#>  8 GIF      500    500 sRGB       FALSE  3597150 72x72  
#>  9 GIF      500    500 sRGB       FALSE  3597150 72x72  
#> 10 GIF      500    500 sRGB       FALSE  3597150 72x72  
#> # … with 90 more rows
…
